\relax 
\@writefile{lof}{\contentsline {figure}{\numberline {1}{\ignorespaces A screen shot of the logic simulator\relax }}{i}}
\@writefile{toc}{\contentsline {section}{\numberline {1}The Logic Simulator}{1}}
\@writefile{toc}{\contentsline {subsection}{\numberline {1.1}The Software Structure}{1}}
\@writefile{lof}{\contentsline {figure}{\numberline {2}{\ignorespaces Class diagram showing the application structure\relax }}{1}}
\providecommand*\caption@xref[2]{\@setref\relax\@undefined{#1}}
\newlabel{fig:classes}{{2}{1}}
\@writefile{toc}{\contentsline {section}{\numberline {2}Testing Strategy}{2}}
\@writefile{toc}{\contentsline {subsection}{\numberline {2.1}The Scanner}{2}}
\@writefile{lol}{\contentsline {lstlisting}{testoutput.txt}{2}}
\@writefile{toc}{\contentsline {subsection}{\numberline {2.2}The Parser}{3}}
\@writefile{toc}{\contentsline {subsection}{\numberline {2.3}The GUI}{3}}
\@writefile{toc}{\contentsline {section}{\numberline {3}Teamwork}{3}}
\@writefile{toc}{\contentsline {subsection}{\numberline {3.1}Source Code Control}{3}}
\@writefile{lof}{\contentsline {figure}{\numberline {3}{\ignorespaces The BitBucket Web Interface\relax }}{3}}
\@writefile{toc}{\contentsline {subsection}{\numberline {3.2}Coding Standards}{4}}
\@writefile{toc}{\contentsline {subsection}{\numberline {3.3}Deadlines}{4}}
\@writefile{toc}{\contentsline {section}{\numberline {4}Area of Responsibility}{4}}
\newlabel{sec:blame}{{4}{4}}
\@writefile{toc}{\contentsline {section}{\numberline {5}Changes Made to the Supplied Source Code}{5}}
\@writefile{toc}{\contentsline {section}{\numberline {6}Conclusion \& Areas for Improvement}{5}}
\@writefile{toc}{\contentsline {section}{\numberline {A}Listings}{I}}
\@writefile{toc}{\contentsline {subsection}{\numberline {A.1}Main Codebase}{I}}
\@writefile{toc}{\contentsline {subsubsection}{\numberline {A.1.1}errorlog.h}{I}}
\@writefile{lol}{\contentsline {lstlisting}{errorlog.h}{I}}
\@writefile{toc}{\contentsline {subsubsection}{\numberline {A.1.2}errorlog.cc}{I}}
\@writefile{lol}{\contentsline {lstlisting}{errorlog.cc}{I}}
\@writefile{toc}{\contentsline {subsubsection}{\numberline {A.1.3}gui.h}{II}}
\@writefile{lol}{\contentsline {lstlisting}{gui.h}{II}}
\@writefile{toc}{\contentsline {subsubsection}{\numberline {A.1.4}gui.cc}{III}}
\@writefile{lol}{\contentsline {lstlisting}{gui.cc}{III}}
\@writefile{toc}{\contentsline {subsubsection}{\numberline {A.1.5}inputexception.h}{XII}}
\@writefile{lol}{\contentsline {lstlisting}{inputexception.h}{XII}}
\@writefile{toc}{\contentsline {subsubsection}{\numberline {A.1.6}inputexception.cc}{XIII}}
\@writefile{lol}{\contentsline {lstlisting}{inputexception.cc}{XIII}}
\@writefile{toc}{\contentsline {subsubsection}{\numberline {A.1.7}names.h}{XIV}}
\@writefile{lol}{\contentsline {lstlisting}{names.h}{XIV}}
\@writefile{toc}{\contentsline {subsubsection}{\numberline {A.1.8}names.cc}{XV}}
\@writefile{lol}{\contentsline {lstlisting}{names.cc}{XV}}
\@writefile{toc}{\contentsline {subsubsection}{\numberline {A.1.9}scanner.h}{XVI}}
\@writefile{lol}{\contentsline {lstlisting}{scanner.h}{XVI}}
\@writefile{toc}{\contentsline {subsubsection}{\numberline {A.1.10}scanner.cc}{XVII}}
\@writefile{lol}{\contentsline {lstlisting}{scanner.cc}{XVII}}
\@writefile{toc}{\contentsline {subsubsection}{\numberline {A.1.11}symbol.h}{XXI}}
\@writefile{lol}{\contentsline {lstlisting}{symbol.h}{XXI}}
\@writefile{toc}{\contentsline {subsubsection}{\numberline {A.1.12}symbol.cc}{XXII}}
\@writefile{lol}{\contentsline {lstlisting}{symbol.cc}{XXII}}
\@writefile{toc}{\contentsline {subsubsection}{\numberline {A.1.13}parser.h}{XXIII}}
\@writefile{lol}{\contentsline {lstlisting}{parserfragment.h}{XXIII}}
\@writefile{toc}{\contentsline {subsubsection}{\numberline {A.1.14}parser.cc}{XXIII}}
\@writefile{lol}{\contentsline {lstlisting}{parserfragment.cc}{XXIII}}
\@writefile{toc}{\contentsline {subsubsection}{\numberline {A.1.15}Makefile}{XXIV}}
\@writefile{lol}{\contentsline {lstlisting}{aMakefile}{XXIV}}
\@writefile{toc}{\contentsline {subsection}{\numberline {A.2}Test Code}{XXV}}
\newlabel{sec:testing}{{A.2}{XXV}}
\@writefile{toc}{\contentsline {subsubsection}{\numberline {A.2.1}errorlogtest.cc}{XXV}}
\@writefile{lol}{\contentsline {lstlisting}{errorlogtest.cc}{XXV}}
\@writefile{toc}{\contentsline {subsubsection}{\numberline {A.2.2}inputexceptiontest.cc}{XXV}}
\@writefile{lol}{\contentsline {lstlisting}{inputexceptiontest.cc}{XXV}}
\@writefile{toc}{\contentsline {subsubsection}{\numberline {A.2.3}namestest.cc}{XXVI}}
\@writefile{lol}{\contentsline {lstlisting}{namestest.cc}{XXVI}}
\@writefile{toc}{\contentsline {subsubsection}{\numberline {A.2.4}scannertest.cc}{XXVII}}
\@writefile{lol}{\contentsline {lstlisting}{scannertest.cc}{XXVII}}
\@writefile{toc}{\contentsline {subsection}{\numberline {A.3}Modified Legacy Code}{XXXIV}}
\@writefile{toc}{\contentsline {subsubsection}{\numberline {A.3.1}devices.h}{XXXIV}}
\@writefile{lol}{\contentsline {lstlisting}{devices.h}{XXXIV}}
\@writefile{toc}{\contentsline {subsubsection}{\numberline {A.3.2}devices.cc}{XXXIV}}
\@writefile{lol}{\contentsline {lstlisting}{devices.cc}{XXXIV}}
\@writefile{toc}{\contentsline {subsubsection}{\numberline {A.3.3}monitor.h}{XLI}}
\@writefile{lol}{\contentsline {lstlisting}{monitor.h}{XLI}}
\@writefile{toc}{\contentsline {subsubsection}{\numberline {A.3.4}monitor.cc}{XLII}}
\@writefile{lol}{\contentsline {lstlisting}{monitor.cc}{XLII}}
\@writefile{toc}{\contentsline {subsubsection}{\numberline {A.3.5}network.h}{XLIV}}
\@writefile{lol}{\contentsline {lstlisting}{network.h}{XLIV}}
\@writefile{toc}{\contentsline {subsubsection}{\numberline {A.3.6}network.cc}{XLV}}
\@writefile{lol}{\contentsline {lstlisting}{network.cc}{XLV}}
\@writefile{toc}{\contentsline {section}{\numberline {B}Attached User Guide }{XLIX}}
\@writefile{toc}{\contentsline {section}{\numberline {C}Example Definition Files}{L}}
\@writefile{toc}{\contentsline {subsection}{\numberline {C.1}Example 1}{L}}
\@writefile{lof}{\contentsline {figure}{\numberline {4}{\ignorespaces $1^{st}$ Example Logic Circuit\relax }}{L}}
\newlabel{fig:example1}{{4}{L}}
\@writefile{toc}{\contentsline {subsection}{\numberline {C.2}Example 2}{LI}}
\@writefile{lof}{\contentsline {figure}{\numberline {5}{\ignorespaces $2^{nd}$ Example Logic Circuit\relax }}{LI}}
\newlabel{fig:example2}{{5}{LI}}
\@writefile{toc}{\contentsline {section}{\numberline {D}File Format}{LII}}
\@writefile{toc}{\contentsline {section}{\numberline {E}Files in the Team Directory}{LIII}}
\@writefile{lot}{\contentsline {table}{\numberline {1}{\ignorespaces Files in the Team Directory\relax }}{LIII}}
\newlabel{tab:Directoryfiles}{{1}{LIII}}
